{
  "client_ids": ["5059364944"],
  "period": "???",
  "user_uid": "user_uid",
  "creds": {
       "developer_token": "8Gcp1nSKCcX-k-ZZnjSwzA",
       "use_proto_plus": false,
       "validate_only": false,
       "client_id": "495667960465-9goo41vcko9s1lvulgdn4791vf8vvplt.apps.googleusercontent.com",
       "client_secret": "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",
       "refresh_token": "1//09YCi7v0MCfZkCgYIARAAGAkSNwF-L9IryLEqsN-3HFCKsrBQhnM1mGdQVq_7Gr27RrA1DnTiIQQFFhlle3J01n95ME1DrFsnCjA"
   },
 "callback_url": "http://127.0.0.1:8000"
}
